2007/11/26 07:44:17 AM,601ZA070000,567
2007/11/26 07:46:38 AM,601ZA070000,568
2007/11/26 07:47:03 AM,601ZA070000,570
2007/11/26 07:53:03 AM,601ZA070000,576
2007/11/26 08:44:47 AM,601ZA070000,626
2007/11/26 08:44:58 AM,601ZA070000,1
2007/12/04 04:14:05 PM,601UK070119,0
2007/12/05 09:39:55 AM,601UK070119,721
